813
(38.7890,15.2130)
(37.7340,15.0040)
(13.6000,40.6700)
(12.6000,40.4800)
(-2.7640,35.9140)
(-1.4080,29.2000)
(-1.5200,29.2500)
(4.2030,9.1700)
(-11.7500,43.3800)
(-21.2310,55.7130)
(-53.0300,72.6000)
(-53.1060,73.5130)
(-46.9000,37.7500)
(-37.5200,177.1800)
(-39.2800,175.5700)
(-29.2700,-177.9200)
(-25.8870,-177.1880)
(-18.9920,-174.7750)
(-18.3250,-174.3650)
(-14.2150,-169.0580)
(-4.0800,145.0370)
(-5.5200,148.1210)
(-5.5250,148.4200)
(-5.4500,150.0300)
(-5.5800,150.5200)
(-5.5000,150.9420)
(-5.0500,151.3300)
(-4.2710,152.2030)
(-6.1400,155.1950)
(-9.0200,157.9500)
(-10.3800,165.8000)
(-15.4000,167.8300)
(-16.2500,168.1200)
(-16.5070,168.3460)
(-16.6800,168.3700)
(-19.5300,169.4420)
(12.2780,93.8580)
(4.9140,96.3290)
(-0.3810,100.4730)
(-0.9780,100.6790)
(-1.6970,101.2640)
(-3.5200,102.6200)
(-6.1020,105.4230)
(-7.3200,107.7300)
(-7.5420,110.4420)
(-8.1080,112.9200)
(-7.9420,112.9500)
(-8.1250,114.0420)
(-8.2420,115.3750)
(-8.4200,116.4700)
(-8.7300,120.9800)
(-8.6700,122.4500)
(-8.5420,122.7750)
(-8.3580,122.8420)
(1.1080,124.7300)
(1.3580,124.7920)
(2.3000,125.3700)
(2.7800,125.4000)
(3.6700,125.5000)
(1.6800,127.8800)
(1.4880,127.6300)
(0.8000,127.3300)
(10.4120,123.1320)
(12.7700,124.0500)
(13.2570,123.6850)
(29.6350,129.7160)
(30.7890,130.3080)
(31.5850,130.6570)
(32.8810,131.1060)
(36.4030,138.5260)
(34.0790,139.5290)
(30.4800,140.3060)
(24.7540,141.2900)
(24.2800,141.4850)
(20.4200,145.0300)
(18.1300,145.8000)
(16.3500,145.6700)
(14.6010,144.7750)
(42.0610,140.6810)
(42.5410,140.8430)
(43.3840,144.0130)
(50.3250,155.4580)
(50.6800,156.0200)
(52.4530,158.1950)
(53.2550,158.8300)
(54.0500,159.4500)
(55.9780,160.5870)
(56.0570,160.6380)
(56.6530,161.3600)
(52.3810,-174.1540)
(52.8250,-169.9440)
(54.7560,-163.9700)
(56.1700,-159.3800)
(58.7700,-153.6720)
(59.3630,-153.4300)
(46.2000,-122.1800)
(19.4210,-155.2870)
(9.8200,-104.3000)
(19.5140,-103.6200)
(19.0230,-98.6220)
(14.7560,-91.5520)
(14.4730,-90.8800)
(14.3810,-90.6010)
(13.8530,-89.6300)
(13.4340,-88.2690)
(12.7020,-87.0040)
(12.6020,-86.8450)
(11.9840,-86.1610)
(11.5380,-85.6220)
(10.4630,-84.7030)
(10.2000,-84.2330)
(1.2200,-77.3700)
(-0.0770,-77.6560)
(-0.1710,-78.5980)
(-1.4670,-78.4420)
(-2.0020,-78.3410)
(-0.3700,-91.5500)
(-0.8300,-91.1700)
(-15.7800,-71.8500)
(-16.3550,-70.9030)
(-23.3700,-67.7300)
(-36.8630,-71.3770)
(-37.8500,-71.1700)
(-38.6920,-71.7290)
(-39.4200,-71.9300)
(16.7200,-62.1800)
(12.3000,-61.6400)
(63.9800,-19.7000)
(64.4200,-17.3300)
(38.7300,-27.3200)
(-37.0920,-12.2800)
(-77.5300,167.1700)
(-58.4200,-26.3300)
(-57.7800,-26.4500)
(40.8210,14.4260)
(36.4040,25.3960)
(14.2420,40.3000)
(12.8800,40.5700)
(12.3800,42.2000)
(11.5800,42.4700)
(8.1580,39.1300)
(2.3200,36.5700)
(1.5000,36.3300)
(-3.2500,36.7500)
(-1.4700,29.4920)
(3.5800,8.7500)
(14.5700,44.6700)
(-37.7210,77.8250)
(-38.1200,176.5000)
(-39.1300,175.6420)
(-35.7450,178.4780)
(-21.3800,-175.6500)
(-20.8500,-175.5300)
(-20.5700,-175.3800)
(-20.3200,-175.4200)
(-19.7500,-175.0700)
(-19.1800,-174.8700)
(-15.6200,-173.6700)
(-18.0200,-174.3250)
(-15.6000,-175.6300)
(-13.6120,-172.5250)
(-2.3800,147.3500)
(-3.0300,147.7800)
(-3.6130,144.8180)
(-4.6490,145.9640)
(-5.3580,147.1200)
(-4.9200,151.1580)
(-8.9500,148.1500)
(-9.2000,149.0700)
(-9.5700,149.0750)
(-8.2920,156.5200)
(-13.8000,167.4700)
(-14.2700,167.5000)
(-16.8290,168.5360)
(-20.9800,170.2800)
(-22.3300,171.3200)
(-22.4000,172.0500)
(-25.7800,168.6300)
(4.8130,96.8200)
(0.6860,99.5390)
(-0.4330,100.3170)
(-2.4140,101.7280)
(-4.0300,103.1300)
(-4.4300,103.6700)
(-5.2500,104.2700)
(-6.7300,106.6500)
(-6.7200,106.7300)
(-6.7800,106.9800)
(-6.7700,107.6000)
(-7.2500,108.0580)
(-6.8920,108.4000)
(-7.2420,109.2080)
(-7.2000,109.9200)
(-7.3000,109.9920)
(-7.9300,112.3080)
(-7.7250,112.5800)
(-8.0580,114.2420)
(-8.3420,115.5080)
(-8.2500,118.0000)
(-8.2000,119.0700)
(-8.6200,120.5200)
(-8.8200,121.1800)
(-8.8970,121.6450)
(-8.7700,121.8200)
(-8.3200,121.7080)
(-8.3420,123.2580)
(-8.2720,123.5050)
(-8.5300,123.5700)
(-8.5080,124.1300)
(-6.9200,129.1250)
(-6.7300,129.5000)
(-6.3000,130.0000)
(-4.5250,129.8710)
(-0.1700,121.6080)
(1.3580,124.8580)
(3.1380,125.4910)
(1.3800,127.5300)
(0.3200,127.4000)
(9.2030,124.6730)
(11.5230,124.5350)
(14.0020,120.9930)
(15.1300,120.3500)
(19.0770,122.2020)
(19.5230,121.9400)
(10.1580,109.0140)
(24.5580,124.0000)
(27.8770,128.2240)
(29.8560,129.8590)
(30.4400,130.2190)
(31.9310,130.8640)
(32.7570,130.2940)
(33.0830,131.2510)
(34.9000,139.0980)
(35.8900,137.4800)
(36.2240,137.5900)
(36.9180,138.0390)
(36.6200,138.5350)
(36.7960,139.3790)
(37.1220,139.9660)
(37.6440,140.2860)
(37.7320,140.2480)
(38.1410,140.4430)
(38.9580,140.7920)
(39.0960,140.0520)
(39.7580,140.8030)
(39.8500,141.0040)
(39.9610,140.7610)
(34.7210,139.3980)
(31.8800,139.9200)
(31.4360,140.0540)
(27.2740,140.8820)
(26.1220,141.1020)
(25.4240,141.2840)
(24.4140,141.4190)
(23.4970,141.9400)
(21.9300,143.4700)
(21.7650,143.7100)
(20.1300,145.1000)
(20.5300,144.9000)
(19.6700,145.4000)
(18.7700,145.6700)
(15.6200,145.5700)
(42.6880,141.3800)
(43.4160,142.6900)
(44.1310,145.1650)
(44.3510,146.2560)
(44.8050,147.1350)
(45.0260,147.9220)
(45.0970,148.0240)
(45.3870,148.8430)
(46.0420,150.0500)
(46.5250,150.8750)
(46.4700,151.2800)
(46.8300,151.7500)
(46.9250,151.9500)
(47.3500,152.4750)
(47.7700,153.0200)
(48.0800,153.3300)
(48.0920,153.2000)
(48.2920,153.2500)
(48.9800,153.4800)
(48.9580,153.9300)
(49.1200,154.5080)
(49.3500,154.7000)
(49.5700,154.8080)
(50.1300,155.3700)
(50.8580,155.5500)
(51.4900,157.2000)
(51.5700,157.3230)
(51.8000,157.5300)
(52.5580,158.0300)
(53.3200,158.6880)
(53.9800,159.4500)
(53.5900,159.1470)
(54.1300,159.6700)
(54.7530,160.5270)
(55.1300,160.3200)
(55.8300,160.3300)
(35.5200,80.2000)
(41.9800,128.0800)
(52.1030,177.6020)
(51.9300,179.5800)
(51.7900,-178.7940)
(51.8850,-178.1460)
(51.9230,-177.1680)
(52.0760,-176.1300)
(52.3150,-172.5100)
(52.5000,-171.2520)
(52.6430,-170.6290)
(52.9740,-169.7200)
(53.4300,-168.1300)
(53.9300,-168.0300)
(53.8910,-166.9230)
(54.1340,-165.9860)
(54.5180,-164.6500)
(55.4200,-161.8870)
(56.0110,-159.7970)
(56.8800,-158.1700)
(57.1350,-156.9900)
(57.8320,-156.5100)
(58.1720,-155.3610)
(58.2360,-155.1000)
(58.2800,-154.9630)
(58.2700,-155.1570)
(60.4850,-152.7420)
(61.2990,-152.2510)
(62.0000,-144.0200)
(40.4920,-121.5080)
(46.5200,-129.5800)
(45.9500,-130.0000)
(44.8300,-130.3000)
(42.6700,-126.7800)
(18.9200,-155.2700)
(19.4750,-155.6080)
(23.5800,-163.8300)
(0.7920,-86.1500)
(-17.4360,-113.2060)
(-28.9800,-140.2500)
(18.7800,-110.9500)
(19.3000,-110.8200)
(19.4800,-102.2500)
(17.3600,-93.2280)
(15.1300,-92.1120)
(14.5010,-90.8760)
(13.8130,-89.6330)
(13.7340,-89.2940)
(12.5060,-86.7020)
(12.4950,-86.6880)
(12.4220,-86.5400)
(10.8300,-85.3240)
(10.7480,-85.1530)
(9.9790,-83.8520)
(4.8950,-75.3220)
(4.6700,-75.3300)
(2.3200,-76.4000)
(1.4700,-76.9200)
(0.9500,-77.8700)
(0.8280,-77.9640)
(-0.6770,-78.4360)
(0.0200,-91.3500)
(-0.4300,-91.1200)
(-0.9200,-91.4080)
(0.5800,-90.7500)
(0.3300,-90.4700)
(-0.2200,-90.7700)
(-17.1800,-70.2000)
(-18.4200,-69.0920)
(-19.1500,-68.8300)
(-20.7300,-68.5500)
(-21.8800,-68.4000)
(-24.2500,-67.7700)
(-33.4000,-69.8000)
(-34.1610,-69.8330)
(-33.7820,-69.8970)
(-34.8140,-70.3520)
(-35.2400,-70.5700)
(-35.5800,-70.7500)
(-35.6530,-70.7610)
(-37.9200,-71.4500)
(-38.3770,-71.5800)
(-39.9270,-72.0270)
(-40.5200,-72.2000)
(-40.3500,-72.0700)
(-41.3260,-72.6140)
(-42.3770,-72.5780)
(-45.9000,-72.9700)
(-47.2000,-73.4800)
(-49.3580,-73.2800)
(-50.9640,-73.5850)
(-49.0200,-73.5500)
(-52.3300,-73.4000)
(16.0500,-61.6700)
(15.3070,-61.3050)
(14.8200,-61.1700)
(13.3300,-61.1800)
(63.6700,-23.3300)
(63.4300,-20.2800)
(63.6300,-19.0500)
(64.4800,-17.8000)
(64.6300,-17.5300)
(64.6500,-16.7200)
(65.0300,-16.7500)
(65.7300,-16.7800)
(64.2700,-16.6500)
(71.0800,-8.1700)
(38.6000,-28.7300)
(38.6500,-28.0800)
(37.6000,-25.8800)
(28.5700,-17.8300)
(28.2710,-16.6410)
(14.9500,-24.3500)
(-62.1000,-57.9300)
(-62.9700,-60.6500)
(-59.4500,-27.3700)
(-59.0300,-26.5800)
(-57.0800,-26.6700)
(-55.9200,-28.0800)
(38.4040,14.9620)
(36.7700,12.0200)
(37.1000,12.7000)
(36.5860,27.1600)
(39.3700,43.8700)
(39.7000,44.3000)
(15.5500,41.8200)
(15.0500,42.1800)
(13.5800,41.8080)
(8.9750,39.9300)
(8.8000,39.6920)
(2.6300,36.6000)
(-0.9140,36.4460)
(-2.6800,37.8800)
(-9.2300,33.7800)
(33.3080,37.3080)
(17.0500,42.8300)
(-18.8060,-174.6500)
(-14.1750,-169.6180)
(-5.0560,150.1080)
(-5.2000,151.2300)
(-9.1300,159.8200)
(-18.7500,169.2300)
(5.4480,95.6580)
(3.2300,98.5200)
(-7.1430,107.8400)
(-7.6250,111.1920)
(-7.9790,113.3420)
(-7.7920,123.5790)
(-7.1250,128.6750)
(0.7500,124.4200)
(1.5200,125.2000)
(6.0130,121.0570)
(7.6470,124.3200)
(7.7000,124.5000)
(7.8770,125.0680)
(18.2220,122.1230)
(18.8300,121.8600)
(20.3300,121.7500)
(24.0000,121.8300)
(28.7970,128.9970)
(36.5680,137.5930)
(37.5980,140.0760)
(40.6530,140.3070)
(17.3200,145.8500)
(41.8020,141.1700)
(42.4890,141.1630)
(43.4530,143.0360)
(44.0730,145.1260)
(43.8410,145.5090)
(43.9760,145.7360)
(45.3380,147.9250)
(47.0200,152.1200)
(47.5200,152.8000)
(48.8750,154.1750)
(50.2700,155.2500)
(56.0700,160.4700)
(51.9500,178.5430)
(52.8940,-170.0540)
(53.1300,-168.6930)
(54.6500,-164.4300)
(57.7510,-156.3680)
(60.0320,-153.0900)
(56.5800,-130.5500)
(48.7770,-121.8130)
(46.8530,-121.7600)
(45.3740,-121.6950)
(19.6920,-155.8700)
(21.1250,-104.5080)
(19.0300,-97.2680)
(14.8200,-91.4800)
(14.5830,-91.1860)
(13.6720,-89.0530)
(13.2290,-87.7670)
(12.9800,-87.5700)
(10.0250,-83.7670)
(-0.4810,-78.1410)
(-0.5380,-77.6260)
(-0.1800,-91.2800)
(-20.9300,-68.4800)
(-22.5500,-67.8500)
(-24.7200,-68.5300)
(-33.6580,-78.8500)
(-37.4060,-71.3490)
(-39.5000,-71.7000)
(-40.9690,-72.2640)
(-41.1000,-72.4930)
(-42.7930,-72.4390)
(-54.9500,-70.2500)
(63.6300,-19.6200)
(66.3000,-17.1000)
(49.0000,-34.5000)
(38.7500,-38.0800)
(37.8700,-25.7800)
(29.0300,-13.6300)
(-66.7800,163.2500)
(-56.3000,-27.5700)
(-0.9040,36.2920)
(-38.7200,77.5300)
(-39.3000,174.0700)
(-7.3840,110.0700)
(-7.4500,110.4300)
(35.3580,138.7310)
(41.2760,141.1240)
(32.4540,139.7620)
(41.5070,139.3710)
(55.6800,157.7300)
(66.4300,143.7300)
(48.7200,126.1200)
(52.1770,-175.5080)
(55.4240,-163.1490)
(55.4530,-161.8430)
(55.1200,-128.9000)
(48.1120,-121.1130)
(41.4090,-122.1930)
(38.0000,-119.0300)
(20.7080,-156.2500)
(18.5700,-95.2000)
(5.0920,-75.3000)
(0.0290,-77.9860)
(-0.3750,-78.2500)
(-16.2940,-71.4090)
(-39.8800,-71.5800)
(-44.7000,-73.0800)
(13.8300,-61.0500)
(64.0000,-16.6500)
(66.6700,-18.5000)
(38.4700,-28.4000)
(38.2300,-26.6300)
(-74.3500,164.7000)
(40.8270,14.1390)
(38.6500,42.2300)
(11.2800,41.6300)
(-16.8200,-179.9700)
(-19.1200,177.9800)
(-6.0920,155.2250)
(-6.6420,126.6500)
(6.1130,124.8920)
(13.4570,123.4570)
(36.1520,136.7740)
(36.9520,139.2890)
(40.6560,140.8810)
(33.1300,139.7690)
(51.3570,156.7500)
(54.4870,160.2530)
(54.5930,160.2730)
(54.7500,157.3800)
(56.7000,159.6500)
(41.3300,128.0000)
(52.3300,-120.5700)
(8.8080,-82.5430)
(8.4700,-80.8200)
(2.9300,-76.0300)
(-16.6080,-70.8500)
(17.6300,-63.2300)
(37.7800,-25.6700)
(37.7700,-25.4700)
(37.7700,-25.3200)
(43.2500,10.8700)
(40.7300,13.8970)
(38.4800,14.9500)
(36.6990,24.4390)
(43.3300,42.4500)
(18.3300,32.7500)
(36.6700,37.0000)
(27.0800,37.2500)
(25.1700,37.7500)
(25.0000,39.9200)
(23.0800,39.7800)
(15.6300,44.0800)
(13.5800,46.1200)
(-35.3000,173.9000)
(-36.9000,174.8700)
(-38.4200,176.3300)
(-38.4200,176.0800)
(-38.8200,176.0000)
(-34.9800,179.0000)
(-5.3300,151.1000)
(-9.6200,150.8800)
(7.3820,126.0470)
(14.1200,121.3000)
(20.4690,122.0100)
(29.9640,129.9270)
(31.2200,130.5700)
(33.2800,131.4320)
(36.4740,138.8810)
(38.7330,140.7320)
(40.4700,140.9200)
(34.3930,139.2730)
(34.2160,139.1560)
(17.6000,145.8300)
(43.6610,142.8580)
(43.5700,144.5650)
(43.6080,144.4430)
(51.4500,156.9700)
(52.6300,157.5800)
(52.5430,157.3350)
(53.7500,158.4500)
(53.8300,158.0500)
(55.0320,160.7200)
(57.3300,160.2000)
(57.3500,160.9700)
(42.9000,89.2500)
(42.5000,82.5000)
(42.3300,126.5000)
(33.3700,126.5300)
(61.6400,-152.4110)
(65.6000,-163.9200)
(61.3800,-141.7500)
(57.7200,-130.6300)
(46.2060,-121.4900)
(44.6740,-121.8000)
(44.4110,-121.7740)
(44.3800,-121.9300)
(44.2850,-121.8410)
(44.1700,-121.7700)
(43.7220,-121.2290)
(41.6110,-121.5540)
(37.8800,-119.0000)
(37.6920,-119.0200)
(37.6310,-119.0320)
(37.5800,-112.6700)
(38.9700,-112.5000)
(36.3800,-113.1300)
(35.3700,-111.5000)
(19.7300,-99.7580)
(19.0800,-99.1300)
(19.4920,-97.1500)
(4.4800,-75.3920)
(-0.8500,-78.9000)
(-1.4640,-78.8150)
(-0.0200,-91.5460)
(-18.1700,-69.1500)
(-27.1200,-68.5500)
(-38.9700,-71.5200)
(-39.6330,-71.5000)
(-44.0800,-72.8800)
(-45.1000,-73.1700)
(17.4780,-62.9600)
(17.3700,-62.8000)
(15.3700,-61.3300)
(15.2550,-61.3410)
(64.8000,-23.7800)
(64.8700,-22.2300)
(63.8800,-22.5000)
(63.9300,-22.1000)
(63.9200,-21.8300)
(64.1800,-21.3300)
(64.7500,-19.9800)
(63.9200,-19.1700)
(63.9200,-19.6700)
(50.1700,6.8500)
(45.7750,2.9700)
(42.6000,11.9300)
(37.6150,23.3360)
(38.1300,34.1700)
(38.5700,34.5200)
(38.9200,42.8200)
(42.7000,44.5000)
(40.2750,44.7500)
(39.7000,45.5420)
(40.0200,45.7800)
(39.7300,46.0200)
(7.7700,38.7800)
(1.9800,36.4300)
(1.1500,36.2300)
(0.9200,36.1800)
(-0.2000,36.0700)
(-1.5000,29.4500)
(12.9500,24.2700)
(15.3200,26.4700)
(15.4300,44.7800)
(-19.0000,46.7700)
(-37.2800,176.2500)
(-30.2000,-178.4700)
(-4.1200,152.2000)
(-4.0800,153.6500)
(-6.5200,155.6200)
(-37.7700,142.5000)
(-8.8750,120.9500)
(14.5200,120.4700)
(20.9200,95.2500)
(31.7680,130.5940)
(32.6530,128.8510)
(35.1300,132.6200)
(35.2300,139.0240)
(36.1030,137.5570)
(36.4080,137.5940)
(36.8880,138.1200)
(36.8970,139.7800)
(37.4500,139.5790)
(39.9310,139.8790)
(39.9500,139.7300)
(34.5170,139.2830)
(33.8710,139.6050)
(42.8800,140.6300)
(42.8300,140.8150)
(45.1800,141.2500)
(44.6080,146.9940)
(51.4500,157.1200)
(52.0630,157.7030)
(52.7000,158.2800)
(52.8230,158.2700)
(53.9050,158.0700)
(53.9050,158.3850)
(54.3200,160.0200)
(54.5300,159.8000)
(54.5000,159.9700)
(54.9730,160.7020)
(55.0700,160.7700)
(55.4200,167.3300)
(56.4700,157.8000)
(57.1500,161.0800)
(57.2000,159.8300)
(57.2700,160.0800)
(57.3500,161.3700)
(57.4000,160.1000)
(57.5500,160.5300)
(57.9700,160.6500)
(58.1300,160.8200)
(58.1800,160.8200)
(58.2800,160.8700)
(56.2800,117.7700)
(48.1700,99.7000)
(44.0800,128.8300)
(37.5000,130.8700)
(55.6410,-161.2140)
(56.5520,-158.7850)
(57.0190,-157.1850)
(58.6080,-154.0280)
(57.1800,-170.3000)
(64.0700,-148.4200)
(57.0500,-135.7500)
(56.7800,-131.2800)
(52.9000,-123.7300)
(50.6300,-123.5000)
(49.8500,-123.0000)
(45.8800,-122.0800)
(45.9300,-121.8200)
(44.1030,-121.7680)
(43.9790,-121.6880)
(43.5700,-121.8200)
(42.9300,-122.1200)
(43.1470,-117.4600)
(37.0200,-117.4500)
(36.3580,-118.3200)
(43.1800,-114.3500)
(43.4200,-113.5000)
(42.8800,-113.2200)
(43.5000,-112.4500)
(44.4300,-110.6700)
(39.6610,-107.0350)
(33.7800,-105.9300)
(34.8000,-108.0000)
(19.8200,-155.4700)
(-25.3700,-129.2700)
(27.4700,-112.5910)
(19.4000,-100.2500)
(19.1080,-99.7580)
(19.2300,-98.0300)
(19.6700,-96.7500)
(19.1500,-97.2700)
(14.1560,-90.4070)
(12.2420,-86.3420)
(10.1350,-84.1000)
(5.2060,-75.3640)
(4.8200,-75.3700)
(1.0800,-77.6800)
(0.5520,-77.5800)
(0.3080,-78.3640)
(0.2580,-78.1830)
(0.0380,-78.4630)
(-0.3530,-78.6170)
(-14.2000,-71.3300)
(-18.1000,-69.5000)
(-24.4000,-68.2500)
(-36.1930,-71.1610)
(-39.2500,-71.7000)
(-41.2500,-72.2700)
(-42.8330,-72.6460)
(-43.5000,-72.8000)
(-43.1800,-72.8000)
(-50.3300,-73.7500)
(-52.0000,-70.0000)
(64.0300,-20.8700)
(64.6000,-20.5800)
(65.4300,-16.6500)
(65.8800,-16.8300)
(39.4620,-31.2160)
(32.7300,-16.9700)
(27.7300,-18.0300)
(28.0000,-15.5800)
(-54.4200,3.3500)
(-72.6700,165.5000)
(-76.0500,-136.0000)
(-76.2800,-112.0800)